File,Class
estrazione_5m__1765.jpg,1 - no infestation
estrazione_5m__1766.jpg,2 - some infestation
estrazione_5m__1767.jpg,1 - no infestation
estrazione_5m__1768.jpg,1 - no infestation
estrazione_5m__1769.jpg,1 - no infestation
estrazione_5m__1770.jpg,2 - some infestation
estrazione_5m__1771.jpg,1 - no infestation
estrazione_5m__1772.jpg,2 - some infestation
estrazione_5m__1773.jpg,2 - some infestation
estrazione_5m__1774.jpg,1 - no infestation
estrazione_5m__1775.jpg,1 - no infestation
estrazione_5m__1776.jpg,1 - no infestation
estrazione_5m__1777.jpg,1 - no infestation
estrazione_5m__1778.jpg,1 - no infestation
estrazione_5m__1779.jpg,1 - no infestation
estrazione_5m__1780.jpg,2 - some infestation
estrazione_5m__1781.jpg,1 - no infestation
estrazione_5m__1782.jpg,2 - some infestation
estrazione_5m__1783.jpg,1 - no infestation
estrazione_5m__1784.jpg,1 - no infestation
estrazione_5m__1785.jpg,1 - no infestation
estrazione_5m__1786.jpg,1 - no infestation
estrazione_5m__1787.jpg,1 - no infestation
estrazione_5m__1788.jpg,1 - no infestation
estrazione_5m__1789.jpg,1 - no infestation
estrazione_5m__1790.jpg,1 - no infestation
estrazione_5m__1791.jpg,1 - no infestation
estrazione_5m__1792.jpg,1 - no infestation
estrazione_5m__1793.jpg,1 - no infestation
estrazione_5m__1794.jpg,2 - some infestation
estrazione_5m__1795.jpg,2 - some infestation
estrazione_5m__1796.jpg,1 - no infestation
estrazione_5m__1797.jpg,1 - no infestation
estrazione_5m__1798.jpg,1 - no infestation
estrazione_5m__1799.jpg,1 - no infestation
estrazione_5m__1800.jpg,1 - no infestation
estrazione_5m__1801.jpg,1 - no infestation
estrazione_5m__1802.jpg,1 - no infestation
estrazione_5m__1803.jpg,2 - some infestation
estrazione_5m__1804.jpg,2 - some infestation
estrazione_5m__1805.jpg,2 - some infestation
estrazione_5m__1806.jpg,2 - some infestation
estrazione_5m__1807.jpg,1 - no infestation
estrazione_5m__1808.jpg,1 - no infestation
estrazione_5m__1809.jpg,2 - some infestation
estrazione_5m__1810.jpg,2 - some infestation
estrazione_5m__1811.jpg,2 - some infestation
estrazione_5m__1812.jpg,2 - some infestation
estrazione_5m__1813.jpg,2 - some infestation
estrazione_5m__1814.jpg,2 - some infestation
estrazione_5m__1815.jpg,2 - some infestation
estrazione_5m__1816.jpg,2 - some infestation
estrazione_5m__1817.jpg,1 - no infestation
estrazione_5m__1818.jpg,2 - some infestation
estrazione_5m__1819.jpg,1 - no infestation
estrazione_5m__1820.jpg,1 - no infestation
estrazione_5m__1821.jpg,2 - some infestation
estrazione_5m__1822.jpg,2 - some infestation
estrazione_5m__1823.jpg,1 - no infestation
estrazione_5m__1824.jpg,2 - some infestation
estrazione_5m__1825.jpg,1 - no infestation
estrazione_5m__1826.jpg,1 - no infestation
estrazione_5m__1827.jpg,1 - no infestation
estrazione_5m__1828.jpg,2 - some infestation
estrazione_5m__1829.jpg,1 - no infestation
estrazione_5m__1830.jpg,1 - no infestation
estrazione_5m__1831.jpg,1 - no infestation
estrazione_5m__1832.jpg,2 - some infestation
estrazione_5m__1833.jpg,2 - some infestation
estrazione_5m__1834.jpg,2 - some infestation
estrazione_5m__1835.jpg,2 - some infestation
estrazione_5m__1836.jpg,2 - some infestation
estrazione_5m__1837.jpg,1 - no infestation
estrazione_5m__1838.jpg,2 - some infestation
estrazione_5m__1839.jpg,2 - some infestation
estrazione_5m__1840.jpg,2 - some infestation
estrazione_5m__1841.jpg,2 - some infestation
estrazione_5m__1842.jpg,2 - some infestation
estrazione_5m__1843.jpg,2 - some infestation
estrazione_5m__1844.jpg,2 - some infestation
estrazione_5m__1845.jpg,1 - no infestation
estrazione_5m__1846.jpg,2 - some infestation
estrazione_5m__1847.jpg,2 - some infestation
estrazione_5m__1848.jpg,2 - some infestation
estrazione_5m__1849.jpg,2 - some infestation
estrazione_5m__1850.jpg,2 - some infestation
estrazione_5m__1851.jpg,2 - some infestation
estrazione_5m__1852.jpg,2 - some infestation
estrazione_5m__1853.jpg,2 - some infestation
estrazione_5m__1854.jpg,2 - some infestation
estrazione_5m__1855.jpg,2 - some infestation
estrazione_5m__1856.jpg,2 - some infestation
estrazione_5m__1857.jpg,2 - some infestation
estrazione_5m__1858.jpg,1 - no infestation
estrazione_5m__1859.jpg,2 - some infestation
estrazione_5m__1860.jpg,1 - no infestation
estrazione_5m__1861.jpg,1 - no infestation
estrazione_5m__1862.jpg,1 - no infestation
estrazione_5m__1863.jpg,1 - no infestation
estrazione_5m__1864.jpg,2 - some infestation
estrazione_5m__1865.jpg,2 - some infestation
estrazione_5m__1866.jpg,1 - no infestation
estrazione_5m__1867.jpg,1 - no infestation
estrazione_5m__1868.jpg,1 - no infestation
estrazione_5m__1869.jpg,2 - some infestation
estrazione_5m__1870.jpg,1 - no infestation
estrazione_5m__1871.jpg,2 - some infestation
estrazione_5m__1872.jpg,2 - some infestation
estrazione_5m__1873.jpg,1 - no infestation
estrazione_5m__1874.jpg,1 - no infestation
estrazione_5m__1875.jpg,1 - no infestation
estrazione_5m__1876.jpg,2 - some infestation
estrazione_5m__1877.jpg,1 - no infestation
estrazione_5m__1878.jpg,1 - no infestation
estrazione_5m__1879.jpg,1 - no infestation
estrazione_5m__1880.jpg,1 - no infestation
estrazione_5m__1881.jpg,2 - some infestation
estrazione_5m__1882.jpg,2 - some infestation
estrazione_5m__1883.jpg,2 - some infestation
estrazione_5m__1884.jpg,2 - some infestation
estrazione_5m__1885.jpg,2 - some infestation
estrazione_5m__1886.jpg,2 - some infestation
estrazione_5m__1887.jpg,1 - no infestation
estrazione_5m__1888.jpg,2 - some infestation
estrazione_5m__1889.jpg,2 - some infestation
estrazione_5m__1890.jpg,2 - some infestation
estrazione_5m__1891.jpg,3 - high infestation
estrazione_5m__1892.jpg,3 - high infestation
estrazione_5m__1893.jpg,3 - high infestation
estrazione_5m__1894.jpg,3 - high infestation
estrazione_5m__1895.jpg,3 - high infestation
estrazione_5m__1896.jpg,3 - high infestation
estrazione_5m__1897.jpg,3 - high infestation
estrazione_5m__1898.jpg,3 - high infestation
estrazione_5m__1899.jpg,3 - high infestation
estrazione_5m__1900.jpg,3 - high infestation
estrazione_5m__1901.jpg,3 - high infestation
estrazione_5m__1902.jpg,3 - high infestation
estrazione_5m__1903.jpg,3 - high infestation
estrazione_5m__1904.jpg,3 - high infestation
estrazione_5m__1905.jpg,3 - high infestation
estrazione_5m__1906.jpg,2 - some infestation
estrazione_5m__1907.jpg,2 - some infestation
estrazione_5m__1908.jpg,2 - some infestation
estrazione_5m__1909.jpg,2 - some infestation
estrazione_5m__1910.jpg,2 - some infestation
estrazione_5m__1911.jpg,2 - some infestation
estrazione_5m__1912.jpg,2 - some infestation
estrazione_5m__1913.jpg,2 - some infestation
estrazione_5m__1914.jpg,2 - some infestation
estrazione_5m__1915.jpg,2 - some infestation
estrazione_5m__1916.jpg,2 - some infestation
estrazione_5m__1917.jpg,2 - some infestation
estrazione_5m__1918.jpg,2 - some infestation
estrazione_5m__1919.jpg,2 - some infestation
estrazione_5m__1920.jpg,2 - some infestation
estrazione_5m__1921.jpg,3 - high infestation
estrazione_5m__1922.jpg,3 - high infestation
estrazione_5m__1923.jpg,3 - high infestation
estrazione_5m__1924.jpg,3 - high infestation
estrazione_5m__1925.jpg,2 - some infestation
estrazione_5m__1926.jpg,3 - high infestation
estrazione_5m__1927.jpg,3 - high infestation
estrazione_5m__1928.jpg,3 - high infestation
estrazione_5m__1929.jpg,3 - high infestation
estrazione_5m__1930.jpg,3 - high infestation
estrazione_5m__1931.jpg,3 - high infestation
estrazione_5m__1932.jpg,3 - high infestation
estrazione_5m__1933.jpg,3 - high infestation
estrazione_5m__1934.jpg,3 - high infestation
estrazione_5m__1935.jpg,3 - high infestation
estrazione_5m__1936.jpg,3 - high infestation
estrazione_5m__1937.jpg,3 - high infestation
estrazione_5m__1938.jpg,3 - high infestation
estrazione_5m__1939.jpg,3 - high infestation
estrazione_5m__1940.jpg,3 - high infestation
estrazione_5m__1941.jpg,3 - high infestation
estrazione_5m__1942.jpg,3 - high infestation
estrazione_5m__1943.jpg,3 - high infestation
estrazione_5m__1944.jpg,3 - high infestation
estrazione_5m__1945.jpg,3 - high infestation
estrazione_5m__1946.jpg,3 - high infestation
estrazione_5m__1947.jpg,3 - high infestation
estrazione_5m__1948.jpg,3 - high infestation
estrazione_5m__1949.jpg,3 - high infestation
estrazione_5m__1950.jpg,3 - high infestation
estrazione_5m__1951.jpg,3 - high infestation
estrazione_5m__1952.jpg,3 - high infestation
estrazione_5m__1953.jpg,3 - high infestation
estrazione_5m__1954.jpg,3 - high infestation
estrazione_5m__1955.jpg,3 - high infestation
estrazione_5m__1956.jpg,3 - high infestation
estrazione_5m__1957.jpg,3 - high infestation
estrazione_5m__1958.jpg,3 - high infestation
estrazione_5m__1959.jpg,3 - high infestation
estrazione_5m__1960.jpg,3 - high infestation
estrazione_5m__1961.jpg,3 - high infestation
estrazione_5m__1962.jpg,3 - high infestation
estrazione_5m__1963.jpg,3 - high infestation
estrazione_5m__1964.jpg,3 - high infestation
estrazione_5m__1965.jpg,3 - high infestation
estrazione_5m__1966.jpg,3 - high infestation
estrazione_5m__1967.jpg,3 - high infestation
estrazione_5m__1968.jpg,3 - high infestation
estrazione_5m__1969.jpg,3 - high infestation
estrazione_5m__1970.jpg,3 - high infestation
estrazione_5m__1971.jpg,3 - high infestation
estrazione_5m__1972.jpg,3 - high infestation
estrazione_5m__1973.jpg,3 - high infestation
estrazione_5m__1974.jpg,3 - high infestation
estrazione_5m__1975.jpg,3 - high infestation
estrazione_5m__1976.jpg,3 - high infestation
estrazione_5m__1977.jpg,3 - high infestation
estrazione_5m__1978.jpg,3 - high infestation
estrazione_5m__1979.jpg,3 - high infestation
estrazione_5m__1980.jpg,3 - high infestation
estrazione_5m__1981.jpg,3 - high infestation
estrazione_5m__1982.jpg,3 - high infestation
estrazione_5m__1983.jpg,3 - high infestation
estrazione_5m__1984.jpg,3 - high infestation
estrazione_5m__1985.jpg,3 - high infestation
estrazione_5m__1986.jpg,3 - high infestation
estrazione_5m__1987.jpg,3 - high infestation
estrazione_5m__1988.jpg,3 - high infestation
estrazione_5m__1989.jpg,3 - high infestation
estrazione_5m__1990.jpg,3 - high infestation
estrazione_5m__1991.jpg,3 - high infestation
estrazione_5m__1992.jpg,3 - high infestation
estrazione_5m__1993.jpg,3 - high infestation
estrazione_5m__1994.jpg,3 - high infestation
estrazione_5m__1995.jpg,3 - high infestation
estrazione_5m__1996.jpg,3 - high infestation
estrazione_5m__1997.jpg,3 - high infestation
estrazione_5m__1998.jpg,3 - high infestation
estrazione_5m__1999.jpg,3 - high infestation
estrazione_5m__2000.jpg,3 - high infestation
estrazione_5m__2001.jpg,3 - high infestation
estrazione_5m__2002.jpg,3 - high infestation
estrazione_5m__2003.jpg,3 - high infestation
estrazione_5m__2004.jpg,3 - high infestation
estrazione_5m__2005.jpg,3 - high infestation
estrazione_5m__2006.jpg,3 - high infestation
estrazione_5m__2007.jpg,3 - high infestation
estrazione_5m__2008.jpg,3 - high infestation
estrazione_5m__2009.jpg,3 - high infestation
estrazione_5m__2010.jpg,3 - high infestation
estrazione_5m__2011.jpg,3 - high infestation
estrazione_5m__2012.jpg,3 - high infestation
estrazione_5m__2013.jpg,3 - high infestation
estrazione_5m__2014.jpg,3 - high infestation
estrazione_5m__2015.jpg,3 - high infestation
estrazione_5m__2016.jpg,3 - high infestation
estrazione_5m__2017.jpg,3 - high infestation
estrazione_5m__2018.jpg,3 - high infestation
estrazione_5m__2019.jpg,3 - high infestation
estrazione_5m__2020.jpg,3 - high infestation
estrazione_5m__2021.jpg,3 - high infestation
estrazione_5m__2022.jpg,3 - high infestation
estrazione_5m__2023.jpg,3 - high infestation
estrazione_5m__2024.jpg,3 - high infestation
estrazione_5m__2025.jpg,3 - high infestation
estrazione_5m__2026.jpg,3 - high infestation
estrazione_5m__2027.jpg,3 - high infestation
estrazione_5m__2028.jpg,3 - high infestation
estrazione_5m__2029.jpg,3 - high infestation
estrazione_5m__2030.jpg,3 - high infestation
estrazione_5m__2031.jpg,3 - high infestation
estrazione_5m__2032.jpg,3 - high infestation
estrazione_5m__2033.jpg,3 - high infestation
estrazione_5m__2034.jpg,3 - high infestation
estrazione_5m__2035.jpg,3 - high infestation
estrazione_5m__2036.jpg,3 - high infestation
estrazione_5m__2037.jpg,3 - high infestation
estrazione_5m__2038.jpg,3 - high infestation
estrazione_5m__2039.jpg,3 - high infestation
estrazione_5m__2040.jpg,3 - high infestation
estrazione_5m__2041.jpg,3 - high infestation
estrazione_5m__2042.jpg,3 - high infestation
estrazione_5m__2043.jpg,3 - high infestation
estrazione_5m__2044.jpg,3 - high infestation
estrazione_5m__2045.jpg,3 - high infestation
estrazione_5m__2046.jpg,3 - high infestation
estrazione_5m__2047.jpg,3 - high infestation
estrazione_5m__2048.jpg,3 - high infestation
estrazione_5m__2049.jpg,3 - high infestation
estrazione_5m__2050.jpg,3 - high infestation
estrazione_5m__2051.jpg,3 - high infestation
estrazione_5m__2052.jpg,3 - high infestation
estrazione_5m__2053.jpg,3 - high infestation
estrazione_5m__2054.jpg,3 - high infestation
estrazione_5m__2055.jpg,3 - high infestation
estrazione_5m__2056.jpg,3 - high infestation
estrazione_5m__2057.jpg,3 - high infestation
