File,Class
estrazione_5m__2347.jpg,2 - some infestation
estrazione_5m__2348.jpg,1 - no infestation
estrazione_5m__2349.jpg,1 - no infestation
estrazione_5m__2350.jpg,1 - no infestation
estrazione_5m__2351.jpg,1 - no infestation
estrazione_5m__2352.jpg,1 - no infestation
estrazione_5m__2353.jpg,2 - some infestation
estrazione_5m__2354.jpg,2 - some infestation
estrazione_5m__2355.jpg,2 - some infestation
estrazione_5m__2356.jpg,3 - high infestation
estrazione_5m__2357.jpg,3 - high infestation
estrazione_5m__2358.jpg,2 - some infestation
estrazione_5m__2359.jpg,2 - some infestation
estrazione_5m__2360.jpg,1 - no infestation
estrazione_5m__2361.jpg,2 - some infestation
estrazione_5m__2362.jpg,2 - some infestation
estrazione_5m__2363.jpg,2 - some infestation
estrazione_5m__2364.jpg,1 - no infestation
estrazione_5m__2365.jpg,2 - some infestation
estrazione_5m__2366.jpg,2 - some infestation
estrazione_5m__2367.jpg,2 - some infestation
estrazione_5m__2368.jpg,2 - some infestation
estrazione_5m__2369.jpg,2 - some infestation
estrazione_5m__2370.jpg,2 - some infestation
estrazione_5m__2371.jpg,3 - high infestation
estrazione_5m__2372.jpg,2 - some infestation
estrazione_5m__2373.jpg,2 - some infestation
estrazione_5m__2374.jpg,3 - high infestation
estrazione_5m__2375.jpg,3 - high infestation
estrazione_5m__2376.jpg,3 - high infestation
estrazione_5m__2377.jpg,3 - high infestation
estrazione_5m__2378.jpg,3 - high infestation
estrazione_5m__2379.jpg,3 - high infestation
estrazione_5m__2380.jpg,2 - some infestation
estrazione_5m__2381.jpg,2 - some infestation
estrazione_5m__2382.jpg,2 - some infestation
estrazione_5m__2383.jpg,2 - some infestation
estrazione_5m__2384.jpg,3 - high infestation
estrazione_5m__2385.jpg,2 - some infestation
estrazione_5m__2386.jpg,2 - some infestation
estrazione_5m__2387.jpg,1 - no infestation
estrazione_5m__2388.jpg,1 - no infestation
estrazione_5m__2389.jpg,1 - no infestation
estrazione_5m__2390.jpg,2 - some infestation
estrazione_5m__2391.jpg,2 - some infestation
estrazione_5m__2392.jpg,2 - some infestation
estrazione_5m__2393.jpg,2 - some infestation
estrazione_5m__2394.jpg,1 - no infestation
estrazione_5m__2395.jpg,2 - some infestation
estrazione_5m__2396.jpg,2 - some infestation
estrazione_5m__2397.jpg,2 - some infestation
estrazione_5m__2398.jpg,1 - no infestation
estrazione_5m__2399.jpg,2 - some infestation
estrazione_5m__2400.jpg,1 - no infestation
estrazione_5m__2401.jpg,1 - no infestation
estrazione_5m__2402.jpg,1 - no infestation
estrazione_5m__2403.jpg,2 - some infestation
estrazione_5m__2404.jpg,2 - some infestation
estrazione_5m__2405.jpg,2 - some infestation
estrazione_5m__2406.jpg,2 - some infestation
estrazione_5m__2407.jpg,2 - some infestation
estrazione_5m__2408.jpg,1 - no infestation
estrazione_5m__2409.jpg,1 - no infestation
estrazione_5m__2410.jpg,1 - no infestation
estrazione_5m__2411.jpg,1 - no infestation
estrazione_5m__2412.jpg,1 - no infestation
estrazione_5m__2413.jpg,1 - no infestation
estrazione_5m__2414.jpg,2 - some infestation
estrazione_5m__2415.jpg,2 - some infestation
estrazione_5m__2416.jpg,2 - some infestation
estrazione_5m__2417.jpg,1 - no infestation
estrazione_5m__2418.jpg,1 - no infestation
estrazione_5m__2419.jpg,2 - some infestation
estrazione_5m__2420.jpg,2 - some infestation
estrazione_5m__2421.jpg,2 - some infestation
estrazione_5m__2422.jpg,3 - high infestation
estrazione_5m__2423.jpg,3 - high infestation
estrazione_5m__2424.jpg,3 - high infestation
estrazione_5m__2425.jpg,3 - high infestation
estrazione_5m__2426.jpg,3 - high infestation
estrazione_5m__2427.jpg,3 - high infestation
estrazione_5m__2428.jpg,3 - high infestation
estrazione_5m__2429.jpg,1 - no infestation
estrazione_5m__2430.jpg,1 - no infestation
estrazione_5m__2431.jpg,1 - no infestation
estrazione_5m__2432.jpg,1 - no infestation
estrazione_5m__2433.jpg,2 - some infestation
estrazione_5m__2434.jpg,2 - some infestation
estrazione_5m__2435.jpg,3 - high infestation
estrazione_5m__2436.jpg,3 - high infestation
estrazione_5m__2437.jpg,2 - some infestation
estrazione_5m__2438.jpg,2 - some infestation
estrazione_5m__2439.jpg,2 - some infestation
estrazione_5m__2440.jpg,1 - no infestation
estrazione_5m__2441.jpg,2 - some infestation
estrazione_5m__2442.jpg,2 - some infestation
estrazione_5m__2443.jpg,2 - some infestation
estrazione_5m__2444.jpg,2 - some infestation
estrazione_5m__2445.jpg,2 - some infestation
estrazione_5m__2446.jpg,1 - no infestation
estrazione_5m__2447.jpg,1 - no infestation
estrazione_5m__2448.jpg,1 - no infestation
estrazione_5m__2449.jpg,2 - some infestation
estrazione_5m__2450.jpg,1 - no infestation
estrazione_5m__2451.jpg,1 - no infestation
estrazione_5m__2452.jpg,1 - no infestation
estrazione_5m__2453.jpg,1 - no infestation
estrazione_5m__2454.jpg,2 - some infestation
estrazione_5m__2455.jpg,2 - some infestation
estrazione_5m__2456.jpg,2 - some infestation
estrazione_5m__2457.jpg,2 - some infestation
estrazione_5m__2458.jpg,2 - some infestation
estrazione_5m__2459.jpg,2 - some infestation
estrazione_5m__2460.jpg,2 - some infestation
estrazione_5m__2461.jpg,2 - some infestation
estrazione_5m__2462.jpg,1 - no infestation
estrazione_5m__2463.jpg,2 - some infestation
estrazione_5m__2464.jpg,2 - some infestation
estrazione_5m__2465.jpg,2 - some infestation
estrazione_5m__2466.jpg,2 - some infestation
estrazione_5m__2467.jpg,2 - some infestation
estrazione_5m__2468.jpg,2 - some infestation
estrazione_5m__2469.jpg,2 - some infestation
estrazione_5m__2470.jpg,2 - some infestation
estrazione_5m__2471.jpg,2 - some infestation
estrazione_5m__2472.jpg,2 - some infestation
estrazione_5m__2473.jpg,1 - no infestation
estrazione_5m__2474.jpg,1 - no infestation
estrazione_5m__2475.jpg,1 - no infestation
estrazione_5m__2476.jpg,2 - some infestation
estrazione_5m__2477.jpg,2 - some infestation
estrazione_5m__2478.jpg,2 - some infestation
estrazione_5m__2479.jpg,1 - no infestation
estrazione_5m__2480.jpg,2 - some infestation
estrazione_5m__2481.jpg,1 - no infestation
estrazione_5m__2482.jpg,1 - no infestation
estrazione_5m__2483.jpg,1 - no infestation
estrazione_5m__2484.jpg,1 - no infestation
estrazione_5m__2485.jpg,1 - no infestation
estrazione_5m__2486.jpg,1 - no infestation
estrazione_5m__2487.jpg,1 - no infestation
estrazione_5m__2488.jpg,1 - no infestation
estrazione_5m__2489.jpg,1 - no infestation
estrazione_5m__2490.jpg,2 - some infestation
estrazione_5m__2491.jpg,2 - some infestation
estrazione_5m__2492.jpg,1 - no infestation
estrazione_5m__2493.jpg,1 - no infestation
estrazione_5m__2494.jpg,2 - some infestation
estrazione_5m__2495.jpg,2 - some infestation
estrazione_5m__2496.jpg,2 - some infestation
estrazione_5m__2497.jpg,2 - some infestation
estrazione_5m__2498.jpg,1 - no infestation
estrazione_5m__2499.jpg,1 - no infestation
estrazione_5m__2500.jpg,1 - no infestation
estrazione_5m__2501.jpg,1 - no infestation
estrazione_5m__2502.jpg,1 - no infestation
estrazione_5m__2503.jpg,2 - some infestation
estrazione_5m__2504.jpg,2 - some infestation
estrazione_5m__2505.jpg,2 - some infestation
estrazione_5m__2506.jpg,2 - some infestation
estrazione_5m__2507.jpg,2 - some infestation
estrazione_5m__2508.jpg,2 - some infestation
estrazione_5m__2509.jpg,2 - some infestation
estrazione_5m__2510.jpg,2 - some infestation
estrazione_5m__2511.jpg,2 - some infestation
estrazione_5m__2512.jpg,2 - some infestation
estrazione_5m__2513.jpg,1 - no infestation
estrazione_5m__2514.jpg,2 - some infestation
estrazione_5m__2515.jpg,3 - high infestation
estrazione_5m__2516.jpg,3 - high infestation
estrazione_5m__2517.jpg,3 - high infestation
estrazione_5m__2518.jpg,3 - high infestation
estrazione_5m__2519.jpg,2 - some infestation
estrazione_5m__2520.jpg,2 - some infestation
estrazione_5m__2521.jpg,2 - some infestation
estrazione_5m__2522.jpg,2 - some infestation
estrazione_5m__2523.jpg,2 - some infestation
estrazione_5m__2524.jpg,1 - no infestation
estrazione_5m__2525.jpg,2 - some infestation
estrazione_5m__2526.jpg,2 - some infestation
estrazione_5m__2527.jpg,2 - some infestation
estrazione_5m__2528.jpg,1 - no infestation
estrazione_5m__2529.jpg,1 - no infestation
estrazione_5m__2530.jpg,1 - no infestation
estrazione_5m__2531.jpg,1 - no infestation
estrazione_5m__2532.jpg,1 - no infestation
estrazione_5m__2533.jpg,1 - no infestation
estrazione_5m__2534.jpg,1 - no infestation
estrazione_5m__2535.jpg,1 - no infestation
estrazione_5m__2536.jpg,1 - no infestation
estrazione_5m__2537.jpg,1 - no infestation
estrazione_5m__2538.jpg,2 - some infestation
estrazione_5m__2539.jpg,2 - some infestation
estrazione_5m__2540.jpg,2 - some infestation
estrazione_5m__2541.jpg,3 - high infestation
estrazione_5m__2542.jpg,3 - high infestation
estrazione_5m__2543.jpg,2 - some infestation
estrazione_5m__2544.jpg,2 - some infestation
estrazione_5m__2545.jpg,2 - some infestation
estrazione_5m__2546.jpg,3 - high infestation
estrazione_5m__2547.jpg,3 - high infestation
estrazione_5m__2548.jpg,2 - some infestation
estrazione_5m__2549.jpg,3 - high infestation
estrazione_5m__2550.jpg,3 - high infestation
estrazione_5m__2551.jpg,2 - some infestation
estrazione_5m__2552.jpg,2 - some infestation
estrazione_5m__2553.jpg,2 - some infestation
estrazione_5m__2554.jpg,1 - no infestation
estrazione_5m__2555.jpg,1 - no infestation
estrazione_5m__2556.jpg,1 - no infestation
estrazione_5m__2557.jpg,1 - no infestation
estrazione_5m__2558.jpg,2 - some infestation
estrazione_5m__2559.jpg,2 - some infestation
estrazione_5m__2560.jpg,2 - some infestation
estrazione_5m__2561.jpg,2 - some infestation
estrazione_5m__2562.jpg,2 - some infestation
estrazione_5m__2563.jpg,2 - some infestation
estrazione_5m__2564.jpg,2 - some infestation
estrazione_5m__2565.jpg,2 - some infestation
estrazione_5m__2566.jpg,1 - no infestation
estrazione_5m__2567.jpg,2 - some infestation
estrazione_5m__2568.jpg,1 - no infestation
estrazione_5m__2569.jpg,2 - some infestation
estrazione_5m__2570.jpg,2 - some infestation
estrazione_5m__2571.jpg,2 - some infestation
estrazione_5m__2572.jpg,1 - no infestation
estrazione_5m__2573.jpg,1 - no infestation
estrazione_5m__2574.jpg,1 - no infestation
estrazione_5m__2575.jpg,1 - no infestation
estrazione_5m__2576.jpg,1 - no infestation
estrazione_5m__2577.jpg,1 - no infestation
estrazione_5m__2578.jpg,1 - no infestation
estrazione_5m__2579.jpg,1 - no infestation
estrazione_5m__2580.jpg,1 - no infestation
estrazione_5m__2581.jpg,1 - no infestation
estrazione_5m__2582.jpg,1 - no infestation
estrazione_5m__2583.jpg,1 - no infestation
estrazione_5m__2584.jpg,2 - some infestation
estrazione_5m__2585.jpg,2 - some infestation
estrazione_5m__2586.jpg,2 - some infestation
estrazione_5m__2587.jpg,2 - some infestation
estrazione_5m__2588.jpg,2 - some infestation
estrazione_5m__2589.jpg,2 - some infestation
estrazione_5m__2590.jpg,2 - some infestation
estrazione_5m__2591.jpg,2 - some infestation
estrazione_5m__2592.jpg,2 - some infestation
estrazione_5m__2593.jpg,2 - some infestation
estrazione_5m__2594.jpg,3 - high infestation
estrazione_5m__2595.jpg,2 - some infestation
estrazione_5m__2596.jpg,2 - some infestation
estrazione_5m__2597.jpg,3 - high infestation
estrazione_5m__2598.jpg,2 - some infestation
estrazione_5m__2599.jpg,2 - some infestation
estrazione_5m__2600.jpg,3 - high infestation
estrazione_5m__2601.jpg,2 - some infestation
estrazione_5m__2602.jpg,2 - some infestation
estrazione_5m__2603.jpg,2 - some infestation
estrazione_5m__2604.jpg,2 - some infestation
estrazione_5m__2605.jpg,1 - no infestation
estrazione_5m__2606.jpg,2 - some infestation
estrazione_5m__2607.jpg,3 - high infestation
estrazione_5m__2608.jpg,2 - some infestation
estrazione_5m__2609.jpg,1 - no infestation
estrazione_5m__2610.jpg,1 - no infestation
estrazione_5m__2611.jpg,2 - some infestation
estrazione_5m__2612.jpg,2 - some infestation
estrazione_5m__2613.jpg,2 - some infestation
estrazione_5m__2614.jpg,1 - no infestation
estrazione_5m__2615.jpg,1 - no infestation
estrazione_5m__2616.jpg,1 - no infestation
estrazione_5m__2617.jpg,1 - no infestation
estrazione_5m__2618.jpg,1 - no infestation
estrazione_5m__2619.jpg,2 - some infestation
estrazione_5m__2620.jpg,2 - some infestation
estrazione_5m__2621.jpg,1 - no infestation
estrazione_5m__2622.jpg,2 - some infestation
estrazione_5m__2623.jpg,1 - no infestation
estrazione_5m__2624.jpg,2 - some infestation
estrazione_5m__2625.jpg,2 - some infestation
estrazione_5m__2626.jpg,2 - some infestation
estrazione_5m__2627.jpg,1 - no infestation
estrazione_5m__2628.jpg,2 - some infestation
estrazione_5m__2629.jpg,2 - some infestation
estrazione_5m__2630.jpg,2 - some infestation
estrazione_5m__2631.jpg,1 - no infestation
estrazione_5m__2632.jpg,1 - no infestation
estrazione_5m__2633.jpg,2 - some infestation
estrazione_5m__2634.jpg,2 - some infestation
estrazione_5m__2635.jpg,2 - some infestation
estrazione_5m__2636.jpg,2 - some infestation
estrazione_5m__2637.jpg,1 - no infestation
estrazione_5m__2638.jpg,2 - some infestation
estrazione_5m__2639.jpg,2 - some infestation
estrazione_5m__2640.jpg,2 - some infestation
estrazione_5m__2641.jpg,2 - some infestation
estrazione_5m__2642.jpg,1 - no infestation
