config,error_rate
NETb1_LR0.001_epochs20_folds5,0.101824
NETb1_LR0.001_epochs20_folds5,0.095745
NETb1_LR0.001_epochs20_folds5,0.079027
NETb1_LR0.001_epochs20_folds5,0.077508
NETb1_LR0.001_epochs20_folds5,0.101824
