File,Class
estrazione_5m__0.jpg,1 - no infestation
estrazione_5m__1.jpg,1 - no infestation
estrazione_5m__2.jpg,1 - no infestation
estrazione_5m__3.jpg,1 - no infestation
estrazione_5m__4.jpg,1 - no infestation
estrazione_5m__5.jpg,1 - no infestation
estrazione_5m__6.jpg,1 - no infestation
estrazione_5m__7.jpg,1 - no infestation
estrazione_5m__8.jpg,1 - no infestation
estrazione_5m__9.jpg,1 - no infestation
estrazione_5m__10.jpg,1 - no infestation
estrazione_5m__11.jpg,1 - no infestation
estrazione_5m__12.jpg,1 - no infestation
estrazione_5m__13.jpg,1 - no infestation
estrazione_5m__14.jpg,1 - no infestation
estrazione_5m__15.jpg,1 - no infestation
estrazione_5m__16.jpg,1 - no infestation
estrazione_5m__17.jpg,1 - no infestation
estrazione_5m__18.jpg,1 - no infestation
estrazione_5m__19.jpg,1 - no infestation
estrazione_5m__20.jpg,1 - no infestation
estrazione_5m__21.jpg,1 - no infestation
estrazione_5m__22.jpg,1 - no infestation
estrazione_5m__23.jpg,1 - no infestation
estrazione_5m__24.jpg,1 - no infestation
estrazione_5m__25.jpg,1 - no infestation
estrazione_5m__26.jpg,1 - no infestation
estrazione_5m__27.jpg,1 - no infestation
estrazione_5m__28.jpg,1 - no infestation
estrazione_5m__29.jpg,1 - no infestation
estrazione_5m__30.jpg,1 - no infestation
estrazione_5m__31.jpg,1 - no infestation
estrazione_5m__32.jpg,1 - no infestation
estrazione_5m__33.jpg,1 - no infestation
estrazione_5m__34.jpg,1 - no infestation
estrazione_5m__35.jpg,1 - no infestation
estrazione_5m__36.jpg,1 - no infestation
estrazione_5m__37.jpg,1 - no infestation
estrazione_5m__38.jpg,1 - no infestation
estrazione_5m__39.jpg,1 - no infestation
estrazione_5m__40.jpg,4 - no plants
estrazione_5m__41.jpg,4 - no plants
estrazione_5m__42.jpg,2 - some infestation
estrazione_5m__43.jpg,2 - some infestation
estrazione_5m__44.jpg,1 - no infestation
estrazione_5m__45.jpg,2 - some infestation
estrazione_5m__46.jpg,2 - some infestation
estrazione_5m__47.jpg,2 - some infestation
estrazione_5m__48.jpg,2 - some infestation
estrazione_5m__49.jpg,3 - high infestation
estrazione_5m__50.jpg,3 - high infestation
estrazione_5m__51.jpg,3 - high infestation
estrazione_5m__52.jpg,3 - high infestation
estrazione_5m__53.jpg,3 - high infestation
estrazione_5m__54.jpg,3 - high infestation
estrazione_5m__55.jpg,3 - high infestation
estrazione_5m__56.jpg,3 - high infestation
estrazione_5m__57.jpg,3 - high infestation
estrazione_5m__58.jpg,3 - high infestation
estrazione_5m__59.jpg,3 - high infestation
estrazione_5m__60.jpg,3 - high infestation
estrazione_5m__61.jpg,3 - high infestation
estrazione_5m__62.jpg,3 - high infestation
estrazione_5m__63.jpg,3 - high infestation
estrazione_5m__64.jpg,3 - high infestation
estrazione_5m__65.jpg,3 - high infestation
estrazione_5m__66.jpg,3 - high infestation
estrazione_5m__67.jpg,3 - high infestation
estrazione_5m__68.jpg,3 - high infestation
estrazione_5m__69.jpg,3 - high infestation
estrazione_5m__70.jpg,3 - high infestation
estrazione_5m__71.jpg,3 - high infestation
estrazione_5m__72.jpg,3 - high infestation
estrazione_5m__73.jpg,3 - high infestation
estrazione_5m__74.jpg,3 - high infestation
estrazione_5m__75.jpg,3 - high infestation
estrazione_5m__76.jpg,3 - high infestation
estrazione_5m__77.jpg,3 - high infestation
estrazione_5m__78.jpg,3 - high infestation
estrazione_5m__79.jpg,3 - high infestation
estrazione_5m__80.jpg,3 - high infestation
estrazione_5m__81.jpg,3 - high infestation
estrazione_5m__82.jpg,4 - no plants
estrazione_5m__83.jpg,4 - no plants
estrazione_5m__84.jpg,2 - some infestation
estrazione_5m__85.jpg,2 - some infestation
estrazione_5m__86.jpg,2 - some infestation
estrazione_5m__87.jpg,3 - high infestation
estrazione_5m__88.jpg,3 - high infestation
estrazione_5m__89.jpg,3 - high infestation
estrazione_5m__90.jpg,3 - high infestation
estrazione_5m__91.jpg,3 - high infestation
estrazione_5m__92.jpg,3 - high infestation
estrazione_5m__93.jpg,3 - high infestation
estrazione_5m__94.jpg,3 - high infestation
estrazione_5m__95.jpg,3 - high infestation
estrazione_5m__96.jpg,3 - high infestation
estrazione_5m__97.jpg,3 - high infestation
estrazione_5m__98.jpg,3 - high infestation
estrazione_5m__99.jpg,3 - high infestation
estrazione_5m__100.jpg,3 - high infestation
estrazione_5m__101.jpg,3 - high infestation
estrazione_5m__102.jpg,3 - high infestation
estrazione_5m__103.jpg,3 - high infestation
estrazione_5m__104.jpg,3 - high infestation
estrazione_5m__105.jpg,3 - high infestation
estrazione_5m__106.jpg,3 - high infestation
estrazione_5m__107.jpg,3 - high infestation
estrazione_5m__108.jpg,3 - high infestation
estrazione_5m__109.jpg,3 - high infestation
estrazione_5m__110.jpg,3 - high infestation
estrazione_5m__111.jpg,3 - high infestation
estrazione_5m__112.jpg,3 - high infestation
estrazione_5m__113.jpg,3 - high infestation
estrazione_5m__114.jpg,3 - high infestation
estrazione_5m__115.jpg,2 - some infestation
estrazione_5m__116.jpg,2 - some infestation
estrazione_5m__117.jpg,3 - high infestation
estrazione_5m__118.jpg,3 - high infestation
estrazione_5m__119.jpg,3 - high infestation
estrazione_5m__120.jpg,2 - some infestation
estrazione_5m__121.jpg,2 - some infestation
estrazione_5m__122.jpg,3 - high infestation
estrazione_5m__123.jpg,2 - some infestation
estrazione_5m__124.jpg,1 - no infestation
estrazione_5m__125.jpg,4 - no plants
estrazione_5m__126.jpg,3 - high infestation
estrazione_5m__127.jpg,3 - high infestation
estrazione_5m__128.jpg,3 - high infestation
estrazione_5m__129.jpg,3 - high infestation
estrazione_5m__130.jpg,3 - high infestation
estrazione_5m__131.jpg,3 - high infestation
estrazione_5m__132.jpg,3 - high infestation
estrazione_5m__133.jpg,3 - high infestation
estrazione_5m__134.jpg,3 - high infestation
estrazione_5m__135.jpg,3 - high infestation
estrazione_5m__136.jpg,3 - high infestation
estrazione_5m__137.jpg,3 - high infestation
estrazione_5m__138.jpg,3 - high infestation
estrazione_5m__139.jpg,3 - high infestation
estrazione_5m__140.jpg,3 - high infestation
estrazione_5m__141.jpg,3 - high infestation
estrazione_5m__142.jpg,3 - high infestation
estrazione_5m__143.jpg,3 - high infestation
estrazione_5m__144.jpg,3 - high infestation
estrazione_5m__145.jpg,3 - high infestation
estrazione_5m__146.jpg,3 - high infestation
estrazione_5m__147.jpg,3 - high infestation
estrazione_5m__148.jpg,3 - high infestation
estrazione_5m__149.jpg,3 - high infestation
estrazione_5m__150.jpg,3 - high infestation
estrazione_5m__151.jpg,3 - high infestation
estrazione_5m__152.jpg,3 - high infestation
estrazione_5m__153.jpg,3 - high infestation
estrazione_5m__154.jpg,3 - high infestation
estrazione_5m__155.jpg,3 - high infestation
estrazione_5m__156.jpg,3 - high infestation
estrazione_5m__157.jpg,3 - high infestation
estrazione_5m__158.jpg,3 - high infestation
estrazione_5m__159.jpg,3 - high infestation
estrazione_5m__160.jpg,3 - high infestation
estrazione_5m__161.jpg,3 - high infestation
estrazione_5m__162.jpg,3 - high infestation
estrazione_5m__163.jpg,3 - high infestation
estrazione_5m__164.jpg,3 - high infestation
estrazione_5m__165.jpg,2 - some infestation
estrazione_5m__166.jpg,1 - no infestation
estrazione_5m__167.jpg,4 - no plants
estrazione_5m__168.jpg,1 - no infestation
estrazione_5m__169.jpg,2 - some infestation
estrazione_5m__170.jpg,3 - high infestation
estrazione_5m__171.jpg,3 - high infestation
estrazione_5m__172.jpg,3 - high infestation
estrazione_5m__173.jpg,3 - high infestation
estrazione_5m__174.jpg,3 - high infestation
estrazione_5m__175.jpg,3 - high infestation
estrazione_5m__176.jpg,3 - high infestation
estrazione_5m__177.jpg,3 - high infestation
estrazione_5m__178.jpg,3 - high infestation
estrazione_5m__179.jpg,3 - high infestation
estrazione_5m__180.jpg,3 - high infestation
estrazione_5m__181.jpg,3 - high infestation
estrazione_5m__182.jpg,3 - high infestation
estrazione_5m__183.jpg,3 - high infestation
estrazione_5m__184.jpg,3 - high infestation
estrazione_5m__185.jpg,3 - high infestation
estrazione_5m__186.jpg,3 - high infestation
estrazione_5m__187.jpg,3 - high infestation
estrazione_5m__188.jpg,3 - high infestation
estrazione_5m__189.jpg,3 - high infestation
estrazione_5m__190.jpg,3 - high infestation
estrazione_5m__191.jpg,3 - high infestation
estrazione_5m__192.jpg,3 - high infestation
estrazione_5m__193.jpg,3 - high infestation
estrazione_5m__194.jpg,3 - high infestation
estrazione_5m__195.jpg,3 - high infestation
estrazione_5m__196.jpg,3 - high infestation
estrazione_5m__197.jpg,3 - high infestation
estrazione_5m__198.jpg,3 - high infestation
estrazione_5m__199.jpg,3 - high infestation
estrazione_5m__200.jpg,3 - high infestation
estrazione_5m__201.jpg,3 - high infestation
estrazione_5m__202.jpg,3 - high infestation
estrazione_5m__203.jpg,3 - high infestation
estrazione_5m__204.jpg,3 - high infestation
estrazione_5m__205.jpg,3 - high infestation
estrazione_5m__206.jpg,2 - some infestation
estrazione_5m__207.jpg,1 - no infestation
estrazione_5m__208.jpg,4 - no plants
estrazione_5m__209.jpg,4 - no plants
estrazione_5m__210.jpg,1 - no infestation
estrazione_5m__211.jpg,1 - no infestation
estrazione_5m__212.jpg,1 - no infestation
estrazione_5m__213.jpg,1 - no infestation
estrazione_5m__214.jpg,1 - no infestation
estrazione_5m__215.jpg,1 - no infestation
estrazione_5m__216.jpg,1 - no infestation
estrazione_5m__217.jpg,1 - no infestation
estrazione_5m__218.jpg,1 - no infestation
estrazione_5m__219.jpg,1 - no infestation
estrazione_5m__220.jpg,1 - no infestation
estrazione_5m__221.jpg,2 - some infestation
estrazione_5m__222.jpg,1 - no infestation
estrazione_5m__223.jpg,1 - no infestation
estrazione_5m__224.jpg,1 - no infestation
estrazione_5m__225.jpg,1 - no infestation
estrazione_5m__226.jpg,1 - no infestation
estrazione_5m__227.jpg,1 - no infestation
estrazione_5m__228.jpg,1 - no infestation
estrazione_5m__229.jpg,1 - no infestation
estrazione_5m__230.jpg,1 - no infestation
estrazione_5m__231.jpg,1 - no infestation
estrazione_5m__232.jpg,1 - no infestation
estrazione_5m__233.jpg,1 - no infestation
estrazione_5m__234.jpg,1 - no infestation
estrazione_5m__235.jpg,1 - no infestation
estrazione_5m__236.jpg,1 - no infestation
estrazione_5m__237.jpg,1 - no infestation
estrazione_5m__238.jpg,1 - no infestation
estrazione_5m__239.jpg,1 - no infestation
estrazione_5m__240.jpg,1 - no infestation
estrazione_5m__241.jpg,1 - no infestation
estrazione_5m__242.jpg,1 - no infestation
estrazione_5m__243.jpg,1 - no infestation
estrazione_5m__244.jpg,1 - no infestation
estrazione_5m__245.jpg,1 - no infestation
estrazione_5m__246.jpg,1 - no infestation
estrazione_5m__247.jpg,1 - no infestation
estrazione_5m__248.jpg,1 - no infestation
estrazione_5m__249.jpg,1 - no infestation
estrazione_5m__250.jpg,4 - no plants
estrazione_5m__251.jpg,1 - no infestation
estrazione_5m__252.jpg,1 - no infestation
estrazione_5m__253.jpg,1 - no infestation
estrazione_5m__254.jpg,1 - no infestation
estrazione_5m__255.jpg,1 - no infestation
estrazione_5m__256.jpg,1 - no infestation
estrazione_5m__257.jpg,1 - no infestation
estrazione_5m__258.jpg,1 - no infestation
estrazione_5m__259.jpg,1 - no infestation
estrazione_5m__260.jpg,2 - some infestation
estrazione_5m__261.jpg,1 - no infestation
estrazione_5m__262.jpg,1 - no infestation
estrazione_5m__263.jpg,1 - no infestation
estrazione_5m__264.jpg,1 - no infestation
estrazione_5m__265.jpg,1 - no infestation
estrazione_5m__266.jpg,1 - no infestation
estrazione_5m__267.jpg,1 - no infestation
estrazione_5m__268.jpg,1 - no infestation
estrazione_5m__269.jpg,1 - no infestation
estrazione_5m__270.jpg,1 - no infestation
estrazione_5m__271.jpg,1 - no infestation
estrazione_5m__272.jpg,1 - no infestation
estrazione_5m__273.jpg,1 - no infestation
estrazione_5m__274.jpg,1 - no infestation
estrazione_5m__275.jpg,1 - no infestation
estrazione_5m__276.jpg,1 - no infestation
estrazione_5m__277.jpg,1 - no infestation
estrazione_5m__278.jpg,1 - no infestation
estrazione_5m__279.jpg,1 - no infestation
estrazione_5m__280.jpg,1 - no infestation
estrazione_5m__281.jpg,1 - no infestation
estrazione_5m__282.jpg,1 - no infestation
estrazione_5m__283.jpg,1 - no infestation
estrazione_5m__284.jpg,1 - no infestation
estrazione_5m__285.jpg,1 - no infestation
estrazione_5m__286.jpg,1 - no infestation
estrazione_5m__287.jpg,1 - no infestation
estrazione_5m__288.jpg,1 - no infestation
estrazione_5m__289.jpg,1 - no infestation
estrazione_5m__290.jpg,4 - no plants
estrazione_5m__291.jpg,4 - no plants
